{
  "title": "Job Survey",
  "pages": [
    {
      "name": "Job Survey",
      "elements": [
        {
          "type": "html",
          "name": "question1",
          "html": "<p>There will be six categories to track your technical skill set:</p>\n<ul>\n  <li><b>Data Science</b></li>\n  <li><b>Coding & Tools</b> (when selecting e.g. Python e.g. you will be guided to a “Python deep dive page” to ask you in depth about your knowledge thereof)</li>\n  <li><b>Infrastructure & Deployment</b> (mandatory for Devops )</li>\n  <li><b>Specialty Tools</b></li>\n  <li><b>Project Management Tools</b></li>\n  <li><b>Affiliation</b> (you should have at least 6 months of job experience) </li>\n</ul>\n"
        },
        {
          "type": "text",
          "name": "firstName",
          "title": "First name",
          "isRequired": true
        },
        {
          "type": "text",
          "name": "lastName",
          "title": "Last name",
          "isRequired": true
        },
        {
          "type": "text",
          "name": "email",
          "title": "Email",
          "isRequired": true
        },
        {
          "type": "radiogroup",
          "name": "region",
          "title": "Please choose your region",
          "isRequired": true,
          "choices": [
            "Asia",
            "South America",
            "United States",
            "Europe"
          ],
          "otherText": "Europe",
          "colCount": 2
        },
        {
          "type": "dropdown",
          "name": "asiaLocation",
          "visibleIf": "{region} = 'Asia'",
          "title": "Please choose your city",
          "isRequired": true,
          "hasOther": true,
          "choices": [
            "New Delhi",
            "Singapore",
            "Sydney",
            "Tokyo",
            "Taipei"
          ],
          "otherText": "Other"
        },
        {
          "type": "dropdown",
          "name": "southAmericaLocation",
          "visibleIf": "{region} = 'South America'",
          "title": "Please choose your office",
          "isRequired": true,
          "hasOther": true,
          "choices": [
            "Mexico"
          ],
          "otherText": "Other"
        },
        {
          "type": "dropdown",
          "name": "usaLocation",
          "visibleIf": "{region} = 'United States'",
          "title": "Please choose your office",
          "hasOther": true,
          "choices": [
            "Bay Area - San Francisco",
            "Bay Area - Silicon Valley",
            "Seattle",
            "Washington DC"
          ],
          "otherText": "Other"
        },
        {
          "type": "dropdown",
          "name": "europeLocation",
          "visibleIf": "{region} = 'Europe'",
          "title": "Please choose your office",
          "isRequired": true,
          "hasOther": true,
          "choices": [
            "Amsterdam",
            "Bogota",
            "Brussels",
            "Buenos Aires"
          ],
          "otherText": "Other"
        },
        {
          "type": "dropdown",
          "name": "cohort",
          "title": "Please choose your cohort",
          "isRequired": true,
          "choices": [
            "Data Scientist",
            "Software Engineer",
            "DevOps Engineer",
            "Data Analyst"
          ],
          "otherText": "Other"
        },
        {
          "type": "dropdown",
          "name": "Data Scientist Title",
          "visibleIf": "{cohort} = 'Data Scientist'",
          "title": "Please choose your business title",
          "isRequired": true,
          "hasOther": true,
          "choices": [
            "Data Scientist",
            "Senior Data Scientist"
          ],
          "otherText": "Other"
        },
        {
          "type": "dropdown",
          "name": "Software Engineer Title",
          "visibleIf": "{cohort} = 'Software Engineer'",
          "title": "Please choose your business title",
          "isRequired": true,
          "hasOther": true,
          "choices": [
            "Software Engineer",
            "Senior Software Engineer"
          ],
          "otherText": "Other"
        },
        {
          "type": "dropdown",
          "name": "DevOps Or Data Analyst Title",
          "visibleIf": "{cohort} = 'DevOps Engineer'",
          "title": "Please choose your business title",
          "isRequired": true,
          "hasOther": true,
          "choices": [
            "Analyst",
            "Senior DevOps Engineer"
          ],
          "otherText": "Other"
        },
        {
          "type": "html",
          "name": "question16",
          "html": "Please assess your skills on a scale of 0 to 5 with\n<br><b>0</b> = No experience at all\n<br><b>1</b> = Novice (heard about it, basic knowledge),\n<br><b>3</b> = Intermediate\n<br><b>5</b> = Expert (3+ years of practical experience)\n"
        },
        {
          "type": "matrix",
          "name": "Data Science skills",
          "title": "Data Science skills",
          "defaultValue": {
            "Statistics/Stochastics (e.g. Bayesian statistics, Probability theory)": "0",
            "Time Series Analysis/Forecasting": "0",
            "Machine Learning": "0",
            "Deep Learning (Image Analytics)": "0",
            "Optimization": "0",
            "Natural Language Processing": "0",
            "Simulation": "0"
          },
          "isRequired": true,
          "columns": [
            "0",
            "1",
            "2",
            "3",
            "4",
            "5"
          ],
          "rows": [
            "Statistics/Stochastics (e.g. Bayesian statistics, Probability theory)",
            "Time Series Analysis/Forecasting",
            "Machine Learning",
            "Deep Learning (Image Analytics)",
            "Optimization",
            "Natural Language Processing",
            "Simulation"
          ]
        },
        {
          "type": "matrix",
          "name": "Statistics/Stochastics",
          "visibleIf": "{cohort} = 'Data Scientist' and {Data Science skills.Statistics/Stochastics (e.g. Bayesian statistics, Probability theory)} <> 0",
          "title": "Statistics/Stochastics",
          "defaultValue": {
            "Generalized Linear Models (Linear R., Logistic R., Regularization)": "0",
            "Numerical Approaches for not-analytically solvable problems": "0",
            "Bayesian statistics": "0",
            "Probability theory": "0",
            "Stochastic processes": "0",
            "Pilot design / Design of experiments": "0",
            "Spatial Statistics/Remote sensing/Satellite Imagery": "0"
          },
          "isRequired": true,
          "columns": [
            "0",
            "1",
            "2",
            "3",
            "4",
            "5"
          ],
          "rows": [
            "Generalized Linear Models (Linear R., Logistic R., Regularization)",
            "Numerical Approaches for not-analytically solvable problems",
            "Bayesian statistics",
            "Probability theory",
            "Stochastic processes",
            "Pilot design / Design of experiments",
            "Spatial Statistics/Remote sensing/Satellite Imagery"
          ]
        },
        {
          "type": "dropdown",
          "name": "Are you experienced in any other Statistics Tools?",
          "visibleIf": "{cohort} = 'Data Scientist' and {Data Science skills.Statistics/Stochastics (e.g. Bayesian statistics, Probability theory)} <> 0",
          "title": "Are you experienced in any other Statistics Tools?",
          "isRequired": true,
          "hasOther": true,
          "choices": [
            "No"
          ],
          "otherText": "Yes"
        },
        {
          "type": "matrix",
          "name": "Time Series Analysis/Forecasting",
          "visibleIf": "{cohort} = 'Data Scientist' and {Data Science skills.Time Series Analysis/Forecasting} <> 0",
          "title": "Time Series Analysis/Forecasting",
          "defaultValue": {
            "Holt Winters": "0",
            "Arima/ArimaX etc": "0",
            "Bayesian Modelling (e.g. Demand Forecasting)": "0",
            "Kalman Filters": "0",
            "Change point detection": "0"
          },
          "isRequired": true,
          "columns": [
            "0",
            "1",
            "2",
            "3",
            "4",
            "5"
          ],
          "rows": [
            "Holt Winters",
            "Arima/ArimaX etc",
            "Bayesian Modelling (e.g. Demand Forecasting)",
            "Kalman Filters",
            "Change point detection"
          ]
        },
        {
          "type": "dropdown",
          "name": "Are you experienced in any other Time Series Analysis/Forecasting Methods?",
          "visibleIf": "{cohort} = 'Data Scientist' and {Data Science skills.Time Series Analysis/Forecasting} <> 0",
          "title": "Are you experienced in any other Time Series Analysis/Forecasting Methods?",
          "isRequired": true,
          "hasOther": true,
          "choices": [
            "No"
          ],
          "otherText": "Yes"
        },
        {
          "type": "matrix",
          "name": "Machine Learning",
          "visibleIf": "{cohort} = 'Data Scientist' and {Data Science skills.Machine Learning} <> 0",
          "title": "Machine Learning",
          "defaultValue": {
            "Unsupervised Learning: Clustering (k-Nearest Neighbors, k-Means, hierarchical clustering)": "0",
            "Supervised Learning: Predictive Modelling (GLM, Regression Trees, Random Forrest, Gradient Boosting)": "0",
            "Model explanation, variable significance, etc.": "0",
            "Semi-supervised Learning": "0",
            "Rule Learning / Rule Discovery": "0",
            "Anomaly Detection": "0"
          },
          "isRequired": true,
          "columns": [
            "0",
            "1",
            "2",
            "3",
            "4",
            "5"
          ],
          "rows": [
            "Unsupervised Learning: Clustering (k-Nearest Neighbors, k-Means, hierarchical clustering)",
            "Supervised Learning: Predictive Modelling (GLM, Regression Trees, Random Forrest, Gradient Boosting)",
            "Model explanation, variable significance, etc.",
            "Semi-supervised Learning",
            "Rule Learning / Rule Discovery",
            "Anomaly Detection"
          ]
        },
        {
          "type": "dropdown",
          "name": "Are you experienced in any other Machine Learning Tools?",
          "visibleIf": "{cohort} = 'Data Scientist' and {Data Science skills.Machine Learning} <> 0",
          "title": "Are you experienced in any other Machine Learning Tools?",
          "isRequired": true,
          "hasOther": true,
          "choices": [
            "No"
          ],
          "otherText": "Yes"
        },
        {
          "type": "matrix",
          "name": "Deep Learning (incl. Image Analytics)",
          "visibleIf": "{cohort} = 'Data Scientist' and {Data Science skills.Deep Learning (Image Analytics)} <> 0",
          "title": "Deep Learning (incl. Image Analytics)",
          "defaultValue": {
            "Convolutional Neural Networks (CNN) / Computer Vision": "0",
            "Recurrent Neural Networks (RNN) / LSTM": "0",
            "Autoencoders": "0",
            "Restricted Boltzmann Machines": "0",
            "Reinforcement Learning (DDQ learning)": "0"
          },
          "isRequired": true,
          "columns": [
            "0",
            "1",
            "2",
            "3",
            "4",
            "5"
          ],
          "rows": [
            "Convolutional Neural Networks (CNN) / Computer Vision",
            "Recurrent Neural Networks (RNN) / LSTM",
            "Autoencoders",
            "Restricted Boltzmann Machines",
            "Reinforcement Learning (DDQ learning)"
          ]
        },
        {
          "type": "dropdown",
          "name": "Are you experienced in any other Deep Learning Tools/Methods?",
          "visibleIf": "{Data Science skills.Deep Learning (Image Analytics)} <> 0",
          "title": "Are you experienced in any other Deep Learning Tools/Methods?",
          "isRequired": true,
          "hasOther": true,
          "choices": [
            "No"
          ],
          "otherText": "Yes"
        },
        {
          "type": "matrix",
          "name": "Optimization",
          "visibleIf": "{cohort} = 'Data Scientist' and {Data Science skills.Optimization} <> 0",
          "title": "Optimization",
          "defaultValue": {
            "Linear Programming, e.g. MILP": "0",
            "Non-linear Programming, e.g. Quadratic Programming": "0",
            "Solution Methods: Column Generation / Bender's Decomposition": "0",
            "Multi Criteria": "0",
            "Stochastic Programming": "0",
            "Solution Methods: Metaheuristics": "0",
            "Constraint Programming": "0",
            "Dynamic Programming": "0"
          },
          "isRequired": true,
          "columns": [
            "0",
            "1",
            "2",
            "3",
            "4",
            "5"
          ],
          "rows": [
            "Linear Programming, e.g. MILP",
            "Non-linear Programming, e.g. Quadratic Programming",
            "Solution Methods: Column Generation / Bender's Decomposition",
            "Multi Criteria",
            "Stochastic Programming",
            "Solution Methods: Metaheuristics",
            "Constraint Programming",
            "Dynamic Programming"
          ]
        },
        {
          "type": "dropdown",
          "name": "Are you experienced in any other Optimization Tools/Methods?",
          "visibleIf": "{cohort} = 'Data Scientist' and {Data Science skills.Optimization} <> 0",
          "title": "Are you experienced in any other Optimization Tools/Methods?",
          "isRequired": true,
          "hasOther": true,
          "choices": [
            "No"
          ],
          "otherText": "Yes"
        },
        {
          "type": "matrix",
          "name": "Natural Language Processing",
          "visibleIf": "{cohort} = 'Data Scientist' and {Data Science skills.Natural Language Processing} <> 0",
          "title": "Natural Language Processing",
          "defaultValue": {
            "Text Processing (Lemmatization, Bag of Word)": "0",
            "Text clustering / labeling": "0",
            "Named Entity Recognition": "0",
            "Text classification": "0",
            "Topic Modelling (LDA, Word2Vec, Doc2Vec)": "0",
            "Sentiment Analysis": "0"
          },
          "isRequired": true,
          "columns": [
            "0",
            "1",
            "2",
            "3",
            "4",
            "5"
          ],
          "rows": [
            "Text Processing (Lemmatization, Bag of Word)",
            "Text clustering / labeling",
            "Named Entity Recognition",
            "Text classification",
            "Topic Modelling (LDA, Word2Vec, Doc2Vec)",
            "Sentiment Analysis"
          ]
        },
        {
          "type": "dropdown",
          "name": "Are you experienced in any other NLP Methods?",
          "visibleIf": "{Data Science skills.Natural Language Processing} <> 0",
          "title": "Are you experienced in any other NLP Methods?",
          "isRequired": true,
          "hasOther": true,
          "choices": [
            "No"
          ],
          "otherText": "Yes"
        },
        {
          "type": "matrix",
          "name": "Simulation",
          "visibleIf": "{cohort} = 'Data Scientist' and {Data Science skills.Simulation} <> 0",
          "title": "Simulation",
          "defaultValue": {
            "Agent-based Simulation": "0",
            "Monte Carlo Simulation": "0",
            "Discrete Event Simulation": "0",
            "System Dynamics": "0"
          },
          "isRequired": true,
          "columns": [
            "0",
            "1",
            "2",
            "3",
            "4",
            "5"
          ],
          "rows": [
            "Agent-based Simulation",
            "Monte Carlo Simulation",
            "Discrete Event Simulation",
            "System Dynamics"
          ]
        },
        {
          "type": "dropdown",
          "name": "Are you experienced in any other Simulation Tools/Methods?",
          "visibleIf": "{Data Science skills.Simulation} <> 0",
          "title": "Are you experienced in any other Simulation Tools/Methods?",
          "isRequired": true,
          "hasOther": true,
          "choices": [
            "No"
          ],
          "otherText": "Yes"
        },
        {
          "type": "matrix",
          "name": "Coding & Tools",
          "title": "Coding & Tools",
          "defaultValue": {
            "Python": "0",
            "R": "0",
            "SQL": "0",
            "Spark": "0",
            "GitHub": "0",
            "UI/UX": "0",
            "Source": "0"
          },
          "isRequired": true,
          "columns": [
            "0",
            "1",
            "2",
            "3",
            "4",
            "5"
          ],
          "rows": [
            "Python",
            "R",
            "SQL",
            "Spark",
            "GitHub",
            "UI/UX",
            "Source"
          ]
        },
        {
          "type": "matrix",
          "name": "Python",
          "visibleIf": "{Coding & Tools.Python} <> 0",
          "title": "Python",
          "defaultValue": {
            "Data engineering and modelling (Pandas, Numpy)": "0",
            "Machine Learning (sklearn)": "0",
            "Optimization (Pyomo, Gurobi)": "0",
            "Neural Networks (Keras, Pytorch, Tensorflow, …)": "0",
            "NLP (e.g. nltk, SpaCy)": "0",
            "Simulation": "0",
            "Time Series (Prophet, …)": "0"
          },
          "isRequired": true,
          "columns": [
            "0",
            "1",
            "2",
            "3",
            "4",
            "5"
          ],
          "rows": [
            "Data engineering and modelling (Pandas, Numpy)",
            "Machine Learning (sklearn)",
            "Optimization (Pyomo, Gurobi)",
            "Neural Networks (Keras, Pytorch, Tensorflow, …)",
            "NLP (e.g. nltk, SpaCy)",
            "Simulation",
            "Time Series (Prophet, …)"
          ]
        },
        {
          "type": "dropdown",
          "name": "Are you experienced in any other Python tools?",
          "visibleIf": "{Coding & Tools.Python} <> 0",
          "title": "Are you experienced in any other Python tools?\n",
          "isRequired": true,
          "hasOther": true,
          "choices": [
            "No"
          ],
          "otherText": "Yes"
        },
        {
          "type": "matrix",
          "name": "R",
          "visibleIf": "{Coding & Tools.R} <> 0",
          "title": "R",
          "defaultValue": {
            "Data Transformation and modelling (dplyr, tidyr, data.table)": "0",
            "Machine Learning (caret, randomforest, xgboost, gbm, cluster, mlr, h2o)": "0",
            "Optimization (matrix, lpsolve API)": "0",
            "Neural Networks (Keras, Tensorflow, …)": "0",
            "NLP (e.g. tidytext, cleannlp, etc.)": "0",
            "Time Series (forecast, tsoutlier, fft, prophet)": "0",
            "Statistics (glm, stats, …)": "0"
          },
          "isRequired": true,
          "columns": [
            "0",
            "1",
            "2",
            "3",
            "4",
            "5"
          ],
          "rows": [
            "Data Transformation and modelling (dplyr, tidyr, data.table)",
            "Machine Learning (caret, randomforest, xgboost, gbm, cluster, mlr, h2o)",
            "Optimization (matrix, lpsolve API)",
            "Neural Networks (Keras, Tensorflow, …)",
            "NLP (e.g. tidytext, cleannlp, etc.)",
            "Simulation",
            "Time Series (forecast, tsoutlier, fft, prophet)",
            "Statistics (glm, stats, …)"
          ]
        },
        {
          "type": "dropdown",
          "name": "Are you experienced in any other R Tools?",
          "visibleIf": "{Coding & Tools.R} <> 0",
          "title": "Are you experienced in any other R Tools?",
          "isRequired": true,
          "hasOther": true,
          "choices": [
            "No"
          ],
          "otherText": "Yes"
        },
        {
          "type": "matrix",
          "name": "SQL",
          "visibleIf": "{Coding & Tools.SQL} <> 0",
          "title": "SQL",
          "defaultValue": {
            "Query writing (Select, Create, Join, …)": "0",
            "Temporal Queries, Temporal Tables": "0",
            "Hierarchical Queries": "0",
            "Stored Procedures, Views, Materialized Views": "0",
            "Set up/administrate databases/tune database (add indexes, primary/foreign keys)": "0",
            "Query Optimization": "0",
            "Specialized Function (e.g. triggers, cursors)": "0"
          },
          "isRequired": true,
          "columns": [
            "0",
            "1",
            "2",
            "3",
            "4",
            "5"
          ],
          "rows": [
            "Query writing (Select, Create, Join, …)",
            "Temporal Queries, Temporal Tables",
            "Hierarchical Queries",
            "Stored Procedures, Views, Materialized Views",
            "Set up/administrate databases/tune database (add indexes, primary/foreign keys)",
            "Query Optimization",
            "Specialized Function (e.g. triggers, cursors)"
          ]
        },
        {
          "type": "dropdown",
          "name": "Are you experienced in any other SQL Tools?",
          "visibleIf": "{Coding & Tools.SQL} <> 0",
          "title": "Are you experienced in any other SQL Tools?",
          "isRequired": true,
          "hasOther": true,
          "choices": [
            "No"
          ],
          "otherText": "Yes"
        },
        {
          "type": "matrix",
          "name": "Spark",
          "visibleIf": "{Coding & Tools.Spark} <> 0",
          "title": "Spark",
          "defaultValue": {
            "Data engineering and modelling (Spark Data Frames)": "0",
            "Machine Learning (SparkML)": "0",
            "GPU computing with Spark": "0"
          },
          "isRequired": true,
          "columns": [
            "0",
            "1",
            "2",
            "3",
            "4",
            "5"
          ],
          "rows": [
            "Data engineering and modelling (Spark Data Frames)",
            "Machine Learning (SparkML)",
            "GPU computing with Spark"
          ]
        },
        {
          "type": "dropdown",
          "name": "Are you experienced in any other Spark Tools?",
          "visibleIf": "{Coding & Tools.Spark} <> 0",
          "title": "Are you experienced in any other Spark Tools?",
          "isRequired": true,
          "hasOther": true,
          "choices": [
            "No"
          ],
          "otherText": "Yes"
        },
        {
          "type": "matrix",
          "name": "GitHub",
          "visibleIf": "{Coding & Tools.GitHub} <> 0",
          "title": "GitHub",
          "defaultValue": {
            "Basic usage (add, commit, branch, merge)": "0",
            "Administration (set up teams, set up repositories, manage rights)": "0",
            "Git rebase/revert/reset/Cherry Pick": "0",
            "Push/Pull requests, Reviews": "0",
            "Using git console": "0",
            "Webhooks, integration with other Services (like CI, Trello, Jira)": "0"
          },
          "isRequired": true,
          "columns": [
            "0",
            "1",
            "2",
            "3",
            "4",
            "5"
          ],
          "rows": [
            "Basic usage (add, commit, branch, merge)",
            "Administration (set up teams, set up repositories, manage rights)",
            "Git rebase/revert/reset/Cherry Pick",
            "Using git console",
            "Push/Pull requests, Reviews",
            "Webhooks, integration with other Services (like CI, Trello, Jira)"
          ]
        },
        {
          "type": "dropdown",
          "name": "Are you experienced in any other GitHub Tools?",
          "visibleIf": "{Coding & Tools.GitHub} <> 0",
          "title": "Are you experienced in any other GitHub Tools?",
          "isRequired": true,
          "hasOther": true,
          "choices": [
            "No"
          ],
          "otherText": "Yes"
        },
        {
          "type": "matrix",
          "name": "UI/UX",
          "visibleIf": "{Coding & Tools.UI/UX} <> 0",
          "title": "UI/UX",
          "defaultValue": {
            "D3.js": "0",
            "Frontend frameworks (Javascript) ReactJS/Angular5/Vue.js": "0",
            "HTML 5/CSS": "0",
            "PowerBI": "0",
            "Python Dash": "0",
            "QLikView": "0",
            "R-Shiny": "0",
            "Spotfire": "0",
            "Tableau": "0",
            "Libraries (e.g. ggplot2, lattice)": "0"
          },
          "isRequired": true,
          "columns": [
            "0",
            "1",
            "2",
            "3",
            "4",
            "5"
          ],
          "rows": [
            "D3.js",
            "Frontend frameworks (Javascript) ReactJS/Angular5/Vue.js",
            "HTML 5/CSS",
            "PowerBI",
            "Python Dash",
            "QLikView",
            "R-Shiny",
            "Spotfire",
            "Tableau",
            "Libraries (e.g. ggplot2, lattice)"
          ]
        },
        {
          "type": "dropdown",
          "name": "Are you experienced in any other Visualization Tools?",
          "visibleIf": "{Coding & Tools.UI/UX} <> 0",
          "title": "Are you experienced in any other Visualization Tools?",
          "isRequired": true,
          "hasOther": true,
          "choices": [
            "No"
          ],
          "otherText": "Yes"
        },
        {
          "type": "matrix",
          "name": "Additional Languages and Tools",
          "title": "Additional Languages and Tools",
          "defaultValue": {
            "Additional Tools": "No",
            "Additional Languages": "No"
          },
          "isRequired": true,
          "columns": [
            "Yes",
            "No"
          ],
          "rows": [
            "Additional Tools",
            "Additional Languages"
          ]
        },
        {
          "type": "matrix",
          "name": "Additional Tools",
          "visibleIf": "{Additional Languages and Tools.Additional Tools} = 'Yes'",
          "title": "Additional Tools",
          "defaultValue": {
            "AIMMS": "0",
            "Alteryx": "0",
            "Anylogic": "0",
            "AnyLogistix": "0",
            "Arena": "0",
            "Clarabridge": "0",
            "CPLEX": "0",
            "Rapidminer": "0",
            "Simul8": "0",
            "Simulink": "0",
            "Supply Chain Guru": "0",
            "Swagger": "0"
          },
          "isRequired": true,
          "columns": [
            "0",
            "1",
            "2",
            "3",
            "4",
            "5"
          ],
          "rows": [
            "AIMMS",
            "Alteryx",
            "Anylogic",
            "AnyLogistix",
            "Arena",
            "Clarabridge",
            "CPLEX",
            "Rapidminer",
            "Simul8",
            "Simulink",
            "Supply Chain Guru",
            "Swagger"
          ]
        },
        {
          "type": "dropdown",
          "name": "Are you experienced in any other tools that have not been mentioned yet?",
          "visibleIf": "{Additional Languages and Tools.Additional Tools} = 'Yes'",
          "title": "Are you experienced in any other tools that have not been mentioned yet?",
          "isRequired": true,
          "hasOther": true,
          "choices": [
            "No"
          ],
          "otherText": "Yes"
        },
        {
          "type": "matrix",
          "name": "Additional Languages",
          "visibleIf": "{Additional Languages and Tools.Additional Languages} = 'Yes'",
          "title": "Additional Languages",
          "defaultValue": {
            "C#": "0",
            "C/C++": "0",
            "Go": "0",
            "Java": "0",
            "Javascript/Typescript": "0",
            "Julia": "0",
            "Scala": "0",
            "VB/VBA": "0",
            "SAS": "0",
            "Mathematica": "0",
            "Matlab": "0"
          },
          "isRequired": true,
          "columns": [
            "0",
            "1",
            "2",
            "3",
            "4",
            "5"
          ],
          "rows": [
            "C#",
            "C/C++",
            "Go",
            "Java",
            "Javascript/Typescript",
            "Julia",
            "Scala",
            "VB/VBA",
            "SAS",
            "Matlab",
            "Mathematica"
          ]
        },
        {
          "type": "dropdown",
          "name": "Are you experienced in any other languages that have not been mentioned yet?",
          "visibleIf": "{Additional Languages and Tools.Additional Languages} = 'Yes'",
          "title": "Are you experienced in any other languages that have not been mentioned yet?",
          "isRequired": true,
          "hasOther": true,
          "choices": [
            "No"
          ],
          "otherText": "Yes"
        },
        {
          "type": "matrix",
          "name": "Infrastructure & Deployment",
          "visibleIf": "{cohort} anyof ['Software Engineer', 'Data Scientist']",
          "title": "Infrastructure & Deployment",
          "defaultValue": {
            "Storage": "0",
            "Cloud Platforms": "0",
            "Distributed Computing": "0",
            "DevOps/System Engineering": "0",
            "Security": "0",
            "Operation/Automation": "0"
          },
          "isRequired": true,
          "columns": [
            "0",
            "1",
            "2",
            "3",
            "4",
            "5"
          ],
          "rows": [
            "Storage",
            "Cloud Platforms",
            "Distributed Computing",
            "DevOps/System Engineering",
            "Security",
            "Operation/Automation"
          ]
        },
        {
          "type": "matrix",
          "name": "Storage",
          "visibleIf": "{Infrastructure & Deployment.Storage} <> 0",
          "title": "Storage",
          "defaultValue": {
            "File Systems (ext3, ext4, NTFS, HDFS, IGFS)": "0",
            "SQL Databases (Postgres, MSSQL, Oracle, Teradata, etc.)": "0",
            "Amazon Redshift/Cosmos DB": "0",
            "NoSQL (MongoDB, Elastic Search, Cassandra, Redis, Hbase)": "0",
            "Kafka": "0",
            "Hive": "0",
            "SAP Hana": "0"
          },
          "isRequired": true,
          "columns": [
            "0",
            "1",
            "2",
            "3",
            "4",
            "5"
          ],
          "rows": [
            "File Systems (ext3, ext4, NTFS, HDFS, IGFS)",
            "SQL Databases (Postgres, MSSQL, Oracle, Teradata, etc.)",
            "Amazon Redshift/Cosmos DB",
            "NoSQL (MongoDB, Elastic Search, Cassandra, Redis, Hbase)",
            "Kafka",
            "Hive",
            "SAP Hana"
          ]
        },
        {
          "type": "dropdown",
          "name": "Are you experienced in any other Storage Tools?",
          "visibleIf": "{Infrastructure & Deployment.Storage} <> 0",
          "title": "Are you experienced in any other Storage Tools?",
          "isRequired": true,
          "hasOther": true,
          "choices": [
            "No"
          ],
          "otherText": "Yes"
        },
        {
          "type": "matrix",
          "name": "Cloud Platforms",
          "visibleIf": "{Infrastructure & Deployment.Cloud Platforms} <> 0",
          "title": "Cloud Platforms",
          "defaultValue": {
            "AWS": "0",
            "Azure": "0",
            "Google Cloud": "0"
          },
          "isRequired": true,
          "columns": [
            "0",
            "1",
            "2",
            "3",
            "4",
            "5"
          ],
          "rows": [
            "AWS",
            "Azure",
            "Google Cloud"
          ]
        },
        {
          "type": "dropdown",
          "name": "Are you experienced in any other Cloud Platforms?",
          "visibleIf": "{Infrastructure & Deployment.Cloud Platforms} <> 0",
          "title": "Are you experienced in any other Cloud Platforms?",
          "isRequired": true,
          "hasOther": true,
          "choices": [
            "No"
          ],
          "otherText": "Yes"
        },
        {
          "type": "matrix",
          "name": "Distributed Computing",
          "visibleIf": "{Infrastructure & Deployment.Distributed Computing} <> 0",
          "title": "Distributed Computing",
          "defaultValue": {
            "Hadoop/MapReduce": "0",
            "Spark API": "0"
          },
          "isRequired": true,
          "columns": [
            "0",
            "1",
            "2",
            "3",
            "4",
            "5"
          ],
          "rows": [
            "Hadoop/MapReduce",
            "Spark API"
          ]
        },
        {
          "type": "dropdown",
          "name": "Are you experienced in any other Distributed Computing Systems?",
          "visibleIf": "{Infrastructure & Deployment.Distributed Computing} <> 0",
          "title": "Are you experienced in any other Distributed Computing Systems?",
          "isRequired": true,
          "hasOther": true,
          "choices": [
            "No"
          ],
          "otherText": "Yes"
        },
        {
          "type": "matrix",
          "name": "DevOps/System Engineering",
          "visibleIf": "{Infrastructure & Deployment.DevOps/System Engineering} <> 0",
          "title": "DevOps/System Engineering",
          "defaultValue": {
            "GitHub/BitBucket": "0",
            "Docker": "0",
            "CI/CD (Circle CI, Jenkins, …)": "0",
            "Data Pipelines (Airflow, Luigi, Source Connect)": "0",
            "Kubernetes": "0",
            "Code Testing": "0",
            "System Testing": "0",
            "Code Quality (pylint)": "0",
            "Unix Poweruser": "0",
            "Unix SysAdmin": "0",
            "Bash/Unix CLI": "0",
            "Develop REST APIs": "0",
            "Software Architecture": "0"
          },
          "isRequired": true,
          "columns": [
            "0",
            "1",
            "2",
            "3",
            "4",
            "5"
          ],
          "rows": [
            "GitHub/BitBucket",
            "Docker",
            "CI/CD (Circle CI, Jenkins, …)",
            "Data Pipelines (Airflow, Luigi, Source Connect)",
            "Kubernetes",
            "Code Testing",
            "System Testing",
            "Code Quality (pylint)",
            "Unix Poweruser",
            "Unix SysAdmin",
            "Bash/Unix CLI",
            "Develop REST APIs",
            "Software Architecture"
          ]
        },
        {
          "type": "dropdown",
          "name": "Are you experienced in any other DevOPS/System Engineering Tools/Methods?",
          "visibleIf": "{Infrastructure & Deployment.DevOps/System Engineering} <> 0",
          "title": "Are you experienced in any other DevOPS/System Engineering Tools/Methods?",
          "isRequired": true,
          "hasOther": true,
          "choices": [
            "No"
          ],
          "otherText": "Yes"
        },
        {
          "type": "matrix",
          "name": "Security",
          "visibleIf": "{Infrastructure & Deployment.Security} <> 0",
          "title": "Security",
          "defaultValue": {
            "SSH": "0",
            "X.509": "0",
            "HTTPS/SSL": "0",
            "LDAP/Active Directory": "0"
          },
          "isRequired": true,
          "columns": [
            "0",
            "1",
            "2",
            "3",
            "4",
            "5"
          ],
          "rows": [
            "SSH",
            "X.509",
            "HTTPS/SSL",
            "LDAP/Active Directory"
          ]
        },
        {
          "type": "dropdown",
          "name": "Are you experienced in any other Security Tools?",
          "visibleIf": "{Infrastructure & Deployment.Security} <> 0",
          "title": "Are you experienced in any other Security Tools?\n",
          "isRequired": true,
          "hasOther": true,
          "choices": [
            "No"
          ],
          "otherText": "Yes"
        },
        {
          "type": "matrix",
          "name": "Operation/Automation",
          "visibleIf": "{Infrastructure & Deployment.Operation/Automation} <> 0",
          "title": "Operation/Automation",
          "defaultValue": {
            "Monitoring: Logging (ELK, Splunk, AWS Cloudwatch, Azure App Insight,…)": "0",
            "Alerting: Notification (email, slack,…)": "0",
            "Setting up Backup/restore": "0",
            "SLA": "0",
            "Support Process": "0"
          },
          "isRequired": true,
          "columns": [
            "0",
            "1",
            "2",
            "3",
            "4",
            "5"
          ],
          "rows": [
            "Monitoring: Logging (ELK, Splunk, AWS Cloudwatch, Azure App Insight,…)",
            "Alerting: Notification (email, slack,…)",
            "Setting up Backup/restore",
            "SLA",
            "Support Process"
          ]
        },
        {
          "type": "dropdown",
          "name": "Are you experienced in any other Operation/Automation Tools?",
          "visibleIf": "{Infrastructure & Deployment.Operation/Automation} <> 0",
          "title": "Are you experienced in any other Operation/Automation Tools?",
          "isRequired": true,
          "hasOther": true,
          "choices": [
            "No"
          ],
          "otherText": "Yes"
        },
        {
          "type": "matrix",
          "name": "Specialty Tools",
          "visibleIf": "{cohort} anyof ['DevOps Engineer', 'Data Analyst']",
          "title": "Specialty Tools",
          "defaultValue": {
            "Other": "0",
            "Geo": "0"
          },
          "isRequired": true,
          "columns": [
            "0",
            "1",
            "2",
            "3",
            "4",
            "5"
          ],
          "rows": [
            "Other",
            "Geo"
          ]
        },
        {
          "type": "matrix",
          "name": "Other Speciality Tools",
          "visibleIf": "{cohort} anyof ['DevOps Engineer', 'Data Analyst']",
          "title": "Other",
          "defaultValue": {
            "Adobe Creative Suite": "0",
            "Camtasia": "0",
            "Crystal Ball": "0",
            "Excel Solver": "0",
            "KNIME": "0",
            "Mathlab": "0",
            "Net Miner": "0",
            "SPSS": "0",
            "Verint": "0"
          },
          "isRequired": true,
          "columns": [
            "0",
            "1",
            "2",
            "3",
            "4",
            "5"
          ],
          "rows": [
            "Adobe Creative Suite",
            "Alteryx",
            "Camtasia",
            "Crystal Ball",
            "Excel Solver",
            "KNIME",
            "Mathlab",
            "Net Miner",
            "SPSS",
            "Verint"
          ]
        },
        {
          "type": "matrix",
          "name": "Geo",
          "visibleIf": "{cohort} anyof ['DevOps Engineer', 'Data Analyst']",
          "title": "Geo",
          "defaultValue": {
            "ArcGIS": "0",
            "Carto": "0",
            "CommunityViz": "0",
            "ENVI": "0",
            "ERDAS": "0",
            "Geomedia": "0",
            "MapInfo": "0",
            "Meridian 2.0": "0",
            "MultiSpec": "0",
            "Orthoengine": "0",
            "PostGIS": "0",
            "QGIS": "0",
            "SocetSet": "0",
            "Spatial SQL in PostgreSQL/PostGIS": "0"
          },
          "isRequired": true,
          "columns": [
            "0",
            "1",
            "2",
            "3",
            "4",
            "5"
          ],
          "rows": [
            "ArcGIS",
            "Carto",
            "CommunityViz",
            "ENVI",
            "ERDAS",
            "Geomedia",
            "MapInfo",
            "Meridian 2.0",
            "MultiSpec",
            "Orthoengine",
            "PostGIS",
            "QGIS",
            "SocetSet",
            "Spatial SQL in PostgreSQL/PostGIS"
          ]
        },
        {
          "type": "matrix",
          "name": "Project Management Tools",
          "title": "Project Management Tools",
          "defaultValue": {
            "Documentation Tools (e.g. Sphinx, Pydoc)": "0",
            "Version Management (e.g. Github, SVN)": "0",
            "Project Management Tools (e.g. Jira, Confluence, Trello)": "0"
          },
          "isRequired": true,
          "columns": [
            "0",
            "1",
            "2",
            "3",
            "4",
            "5"
          ],
          "rows": [
            "Documentation Tools (e.g. Sphinx, Pydoc)",
            "Version Management (e.g. Github, SVN)",
            "Project Management Tools (e.g. Jira, Confluence, Trello)"
          ]
        },
        {
          "type": "html",
          "name": "Affiliations (any affiliations that focus on past work and preferences)",
          "visibleIf": "{cohort} anyof ['DevOps Engineer', 'Data Analyst', 'Data Scientist']",
          "html": "<br>\n<h3>Affiliations (any affiliations that focus on past work and preferences)</h3>"
        },
        {
          "type": "checkbox",
          "name": "Industry Affiliation (optional).",
          "visibleIf": "{cohort} anyof ['DevOps Engineer', 'Data Analyst', 'Data Scientist']",
          "title": "Industry Affiliation (optional).",
          "description": "Please indicate all that apply (you should have at least 6 months of job experience)",
          "choices": [
            "Consumer",
            "Energy",
            "Health Care",
            "Insurance",
            "Technology"
          ]
        },
        {
          "type": "checkbox",
          "name": "Affiliation (optional)",
          "visibleIf": "{cohort} anyof ['DevOps Engineer', 'Data Analyst', 'Data Scientist']",
          "title": "Affiliation (optional)",
          "description": "Please indicate all that apply (you should have at least 6 months of job experience)",
          "choices": [
            "Visualization",
            "Data Engineering",
            "SCRUM"
          ]
        },
        {
          "type": "matrix",
          "name": "Topic",
          "visibleIf": "{cohort} anyof ['DevOps Engineer', 'Data Analyst', 'Data Scientist']",
          "title": "Topic",
          "defaultValue": {
            "Custom offerings as required": "0",
            "Blockchain": "0",
            "Cryptocurrency": "0"
          },
          "isRequired": true,
          "columns": [
            "0",
            "1",
            "2",
            "3",
            "4",
            "5"
          ],
          "rows": [
            "Custom offerings as required",
            "Blockchain",
            "Cryptocurrency"
          ]
        }
      ]
    }
  ]
}
